…
# find records where the duration of an avistaje is <= 0 seconds... these should be checked and corrected in database
warnings <- d %>% filter(Duration <= 0 | is.na(Duration))

if (!is.null(warnings)) {
    print("WARNING: Check the following avistajes as the times imply that the avistaje lasted < 0 seconds or that either Time Enc or Time Left/Lost = NA!")
    print(warnings)
    }
```

    ## [1] "WARNING: Check the following avistajes as the times imply that the avistaje lasted < 0 seconds or that either Time Enc or Time Left/Lost = NA!"
    ## # A tibble: 27 x 14
    ##    rowID `Obs Sample ID`          Observer       Date `GPS Used`
    ##    <int>           <chr>             <chr>     <date>      <chr>
    ##  1   578         OS36017 Cristian Alvarado 2017-07-03   GPS PP12
    ##  2   583         OS36019 Cristian Alvarado 2017-07-05   GPS Used
    ##  3   588         OS36022 Cristian Alvarado 2017-07-08   GPS PP12
    ##  4   593         OS36025 Cristian Alvarado 2017-07-11   GPS PP12
    ##  5   612         OS36036 Cristian Alvarado 2017-07-22   GPS PP12
    ##  6   615         OS36037 Cristian Alvarado 2017-07-23   GPS PP12
    ##  7   617         OS36038 Cristian Alvarado 2017-07-24   GPS PP12
    ##  8   622         OS36039 Cristian Alvarado 2017-07-25   GPS PP12
    ##  9   632         OS36040 Cristian Alvarado 2017-07-26   GPS PP12
    ## 10   626         OS36040 Cristian Alvarado 2017-07-26   GPS PP12
    ## # ... with 17 more rows, and 9 more variables: `Avistaje ID` <chr>,
    ## #   Taxon <chr>, Group <chr>, `Time Enc` <dttm>, `Time Left/Lost` <dttm>,
    ## #   `Other Observer Present` <chr>, `Found in Sleep Tree` <lgl>, `Left in
    ## #   Sleep Tree` <lgl>, Duration <time>
…
